{
  "vhosts": [{ "name": "/" }],
  "exchanges": [
    {
      "name": "syslog",
      "vhost": "/",
      "type": "direct",
      "durable": true,
      "auto_delete": true,
      "internal": false,
      "arguments": {}
    }
  ]
}
